<svg xmlns="http://www.w3.org/2000/svg" width="17.4" height="17.4" viewBox="0 0 17.4 17.4">
  <g id="bread" transform="translate(0 -0.001)">
    <path id="Path_4494" data-name="Path 4494" d="M16.832.769A3.132,3.132,0,0,0,14.664,0,9.119,9.119,0,0,0,11.68.5,17.7,17.7,0,0,0,4.829,4.83,17.7,17.7,0,0,0,.5,11.68,9.114,9.114,0,0,0,0,14.664a3.132,3.132,0,0,0,.766,2.168A1.952,1.952,0,0,0,2.2,17.4,3.116,3.116,0,0,0,2.8,17.34a7.353,7.353,0,0,0,2.44-1.094,38.028,38.028,0,0,0,5.937-5.069A38.027,38.027,0,0,0,16.245,5.24,7.353,7.353,0,0,0,17.339,2.8,2.132,2.132,0,0,0,16.832.769Z" transform="translate(0 0)" fill="#efc074"/>
    <g id="Group_214" data-name="Group 214" transform="translate(2.7 2.701)">
      <path id="Path_4495" data-name="Path 4495" d="M193.4,81.7a.51.51,0,1,0,.721-.721l-1.883-1.883q-.42.294-.827.615Z" transform="translate(-187.576 -79.094)" fill="#b76d43"/>
      <path id="Path_4496" data-name="Path 4496" d="M131.027,131.748l1.86,1.86a.51.51,0,1,0,.721-.721l-1.86-1.86q-.185.175-.365.356T131.027,131.748Z" transform="translate(-129.254 -129.254)" fill="#b76d43"/>
      <path id="Path_4497" data-name="Path 4497" d="M79.709,191.411q-.32.407-.615.827l1.883,1.883a.51.51,0,0,0,.721-.721Z" transform="translate(-79.094 -187.576)" fill="#b76d43"/>
    </g>
    <path id="Path_4498" data-name="Path 4498" d="M22.473,7.932A2.132,2.132,0,0,0,21.965,5.9a2.453,2.453,0,0,0-1.018-.587L5.315,20.946A2.453,2.453,0,0,0,5.9,21.964a1.952,1.952,0,0,0,1.436.568,3.116,3.116,0,0,0,.595-.061,7.352,7.352,0,0,0,2.44-1.094,38.027,38.027,0,0,0,5.937-5.069,38.027,38.027,0,0,0,5.069-5.937,7.35,7.35,0,0,0,1.094-2.44Z" transform="translate(-5.134 -5.132)" fill="#ebaa5f"/>
  </g>
</svg>
