<svg xmlns="http://www.w3.org/2000/svg" width="15.364" height="22.002" viewBox="0 0 15.364 22.002">
  <g id="french-fries" transform="translate(-77.235 0)">
    <path id="Path_4486" data-name="Path 4486" d="M92.288,6.715C92.469,5.4,92.556,4.3,92.6,3.5a.885.885,0,0,0-.359-.758c-.525-.386-.639-.512-.937-.515a.961.961,0,0,0-.6.216.884.884,0,0,0-.445-.684c-.567-.321-.7-.432-.992-.4s-.393.143-.875.522a.886.886,0,0,0-.336.758c.04.585.075,1.358.078,2.275a.87.87,0,0,0-1.063.043l-.07.064c-.043-.385-.088-.73-.131-1.032a.884.884,0,0,0-.5-.675l-.511-.241c-.069-.814-.153-1.507-.232-2.057a.884.884,0,0,0-.5-.675C84.534.062,84.4-.04,84.1.014s-.38.17-.835.585a.886.886,0,0,0-.28.781c.031.218.063.463.1.731a.92.92,0,0,0-.891.345l-.254.231a.886.886,0,0,0-.28.781c.028.194.056.409.085.644-.328-1-.641-1.823-.895-2.446a.884.884,0,0,0-.647-.534c-.643-.128-.8-.191-1.067-.068-.265.107-.327.259-.667.77a.886.886,0,0,0-.082.825c.125.307.268.671.42,1.086l-.342-.053h0a.8.8,0,0,0-.8.375l-.3.493a.886.886,0,0,0-.047.828c.313.683.726,1.654,1.155,2.856A40.463,40.463,0,0,1,80,13.724H90.715A43.063,43.063,0,0,0,92.288,6.715Z" transform="translate(0 0)" fill="#ffcf5d"/>
    <g id="Group_212" data-name="Group 212" transform="translate(77.998 0.002)">
      <path id="Path_4487" data-name="Path 4487" d="M357.079,38.652c.152-.78.267-1.494.354-2.119.175-1.264.258-2.316.3-3.066a.886.886,0,0,1,.425-.712l.326-.2a.884.884,0,0,0-.445-.684l-.53-.3a.745.745,0,0,0-.462-.1A37.754,37.754,0,0,1,357.079,38.652Z" transform="translate(-345.783 -30.117)" fill="#ff983b"/>
      <path id="Path_4488" data-name="Path 4488" d="M209.759,3.343l-.511-.241c-.069-.814-.153-1.507-.232-2.057a.884.884,0,0,0-.5-.675l-.551-.26A.744.744,0,0,0,207.5.045a32.805,32.805,0,0,1,.443,3.524l.388-.354h0a.742.742,0,0,1,.409-.2,39.507,39.507,0,0,1,.425,10.081c-.011-.516-.031-1-.056-1.435-.075-1.327-.2-2.422-.314-3.217a.885.885,0,0,0-.5-.675L207.93,7.6c0-.05-.005-.1-.008-.15-.07-1.274-.191-2.323-.3-3.066a.887.887,0,0,1,.145-.625c-.028-.225-.056-.434-.083-.625a.884.884,0,0,0-.5-.675l-.55-.26h0a.843.843,0,0,0-.159-.057.724.724,0,0,0-.309-.009,36.2,36.2,0,0,1,.55,5.647l.149-.135a.754.754,0,0,1,.412-.2l.176,6.308h2.581a40.392,40.392,0,0,0,.009-4.533c-.07-1.274-.191-2.323-.3-3.066a.886.886,0,0,1,.28-.781l.085-.078.271-.247c-.043-.385-.088-.73-.131-1.032A.884.884,0,0,0,209.759,3.343Z" transform="translate(-201.393 -0.032)" fill="#ff983b"/>
      <path id="Path_4489" data-name="Path 4489" d="M98.731,26.288c-.328-1-.641-1.823-.895-2.446a.885.885,0,0,0-.647-.534l-.412-.082-.186-.037a.745.745,0,0,0-.47.05,39.414,39.414,0,0,1,2.826,9.454c-.337-1.243-.692-2.333-1.014-3.23-.449-1.251-.879-2.266-1.213-3a.884.884,0,0,0-.669-.506l-.26-.04-.341-.053h0a.744.744,0,0,0-.468.07A39.664,39.664,0,0,1,98.335,35.9h.356c.141-1.113.226-2.174.27-3.161.071-1.558.043-2.931-.017-4.029C98.892,27.769,98.812,26.951,98.731,26.288Z" transform="translate(-94.983 -22.178)" fill="#ff983b"/>
      <path id="Path_4490" data-name="Path 4490" d="M317.265,114.684c-.007-.123-.015-.244-.022-.363-.076-1.164-.189-2.133-.291-2.854a.884.884,0,0,0-.5-.675l-.3-.141-.067-.031-.186-.088a.745.745,0,0,0-.468-.066,38.989,38.989,0,0,1,.5,8.965h1.332A43.022,43.022,0,0,0,317.265,114.684Z" transform="translate(-305.961 -105.709)" fill="#ff983b"/>
      <path id="Path_4491" data-name="Path 4491" d="M361.417,52.286l-.491-.361a.744.744,0,0,0-.447-.154,40,40,0,0,1-1.979,11.5h1.394a43.079,43.079,0,0,0,1.573-7.009c.181-1.317.268-2.416.309-3.217A.884.884,0,0,0,361.417,52.286Z" transform="translate(-347.176 -49.548)" fill="#ff983b"/>
    </g>
    <path id="Path_4492" data-name="Path 4492" d="M127.583,256.016h-2.7a.661.661,0,0,0-.645.535,2.657,2.657,0,0,1-5.2,0,.661.661,0,0,0-.645-.535h-2.735a.664.664,0,0,0-.656.77l1.511,9.39.046.283a.664.664,0,0,0,.656.558h8.814a.664.664,0,0,0,.656-.558l1.557-9.672A.664.664,0,0,0,127.583,256.016Z" transform="translate(-36.134 -245.014)" fill="#ff5368"/>
    <path id="Path_4493" data-name="Path 4493" d="M159.691,256.016h-.566l-1.557,9.672h-9.028l.078.487.046.283a.664.664,0,0,0,.656.558h8.814a.664.664,0,0,0,.656-.558l1.557-9.672A.664.664,0,0,0,159.691,256.016Z" transform="translate(-68.242 -245.014)" fill="#d9435b"/>
  </g>
</svg>
